^D:\PROGRAMMING\C++\2TERM\LAB7_DOUBLYLINKEDLIST\ARGUMENTOUTOFRANGEEXCEPTION.CPP|D:\PROGRAMMING\C++\2TERM\LAB7_DOUBLYLINKEDLIST\COMPUTINGMACHINE.CPP|D:\PROGRAMMING\C++\2TERM\LAB7_DOUBLYLINKEDLIST\DOUBLYLINKEDLIST.CPP|D:\PROGRAMMING\C++\2TERM\LAB7_DOUBLYLINKEDLIST\EXCEPTION.CPP|D:\PROGRAMMING\C++\2TERM\LAB7_DOUBLYLINKEDLIST\INPUTSIZEEXCEPTION.CPP|D:\PROGRAMMING\C++\2TERM\LAB7_DOUBLYLINKEDLIST\INVALIDLANGUAGEEXCEPTION.CPP|D:\PROGRAMMING\C++\2TERM\LAB7_DOUBLYLINKEDLIST\LAPTOP.CPP|D:\PROGRAMMING\C++\2TERM\LAB7_DOUBLYLINKEDLIST\MAIN.CPP|D:\PROGRAMMING\C++\2TERM\LAB7_DOUBLYLINKEDLIST\MONOBLOCK.CPP|D:\PROGRAMMING\C++\2TERM\LAB7_DOUBLYLINKEDLIST\PC.CPP|D:\PROGRAMMING\C++\2TERM\LAB7_DOUBLYLINKEDLIST\PORTABLEMACHINE.CPP|D:\PROGRAMMING\C++\2TERM\LAB7_DOUBLYLINKEDLIST\STATIONARYMACHINE.CPP|D:\PROGRAMMING\C++\2TERM\LAB7_DOUBLYLINKEDLIST\TABLET.CPP
D:\PROGRAMMING\C++\2TERM\LAB7_DOUBLYLINKEDLIST\X64\DEBUG\VC142.PDB
D:\PROGRAMMING\C++\2TERM\LAB7_DOUBLYLINKEDLIST\X64\DEBUG\VC142.IDB
D:\PROGRAMMING\C++\2TERM\LAB7_DOUBLYLINKEDLIST\X64\DEBUG\TABLET.OBJ
D:\PROGRAMMING\C++\2TERM\LAB7_DOUBLYLINKEDLIST\X64\DEBUG\STATIONARYMACHINE.OBJ
D:\PROGRAMMING\C++\2TERM\LAB7_DOUBLYLINKEDLIST\X64\DEBUG\PORTABLEMACHINE.OBJ
D:\PROGRAMMING\C++\2TERM\LAB7_DOUBLYLINKEDLIST\X64\DEBUG\PC.OBJ
D:\PROGRAMMING\C++\2TERM\LAB7_DOUBLYLINKEDLIST\X64\DEBUG\MONOBLOCK.OBJ
D:\PROGRAMMING\C++\2TERM\LAB7_DOUBLYLINKEDLIST\X64\DEBUG\MAIN.OBJ
D:\PROGRAMMING\C++\2TERM\LAB7_DOUBLYLINKEDLIST\X64\DEBUG\LAPTOP.OBJ
D:\PROGRAMMING\C++\2TERM\LAB7_DOUBLYLINKEDLIST\X64\DEBUG\INVALIDLANGUAGEEXCEPTION.OBJ
D:\PROGRAMMING\C++\2TERM\LAB7_DOUBLYLINKEDLIST\X64\DEBUG\INPUTSIZEEXCEPTION.OBJ
D:\PROGRAMMING\C++\2TERM\LAB7_DOUBLYLINKEDLIST\X64\DEBUG\EXCEPTION.OBJ
D:\PROGRAMMING\C++\2TERM\LAB7_DOUBLYLINKEDLIST\X64\DEBUG\DOUBLYLINKEDLIST.OBJ
D:\PROGRAMMING\C++\2TERM\LAB7_DOUBLYLINKEDLIST\X64\DEBUG\COMPUTINGMACHINE.OBJ
D:\PROGRAMMING\C++\2TERM\LAB7_DOUBLYLINKEDLIST\X64\DEBUG\ARGUMENTOUTOFRANGEEXCEPTION.OBJ
^D:\PROGRAMMING\C++\2TERM\LAB7_DOUBLYLINKEDLIST\ARGUMENTOUTOFRANGEEXCEPTION.CPP
D:\PROGRAMMING\C++\2TERM\LAB7_DOUBLYLINKEDLIST\X64\DEBUG\VC142.PDB
^D:\PROGRAMMING\C++\2TERM\LAB7_DOUBLYLINKEDLIST\INPUTSIZEEXCEPTION.CPP
D:\PROGRAMMING\C++\2TERM\LAB7_DOUBLYLINKEDLIST\X64\DEBUG\VC142.PDB
^D:\PROGRAMMING\C++\2TERM\LAB7_DOUBLYLINKEDLIST\INVALIDLANGUAGEEXCEPTION.CPP
D:\PROGRAMMING\C++\2TERM\LAB7_DOUBLYLINKEDLIST\X64\DEBUG\VC142.PDB
^D:\PROGRAMMING\C++\2TERM\LAB7_DOUBLYLINKEDLIST\LAPTOP.CPP|D:\PROGRAMMING\C++\2TERM\LAB7_DOUBLYLINKEDLIST\MONOBLOCK.CPP|D:\PROGRAMMING\C++\2TERM\LAB7_DOUBLYLINKEDLIST\PC.CPP|D:\PROGRAMMING\C++\2TERM\LAB7_DOUBLYLINKEDLIST\PORTABLEMACHINE.CPP|D:\PROGRAMMING\C++\2TERM\LAB7_DOUBLYLINKEDLIST\TABLET.CPP
D:\PROGRAMMING\C++\2TERM\LAB7_DOUBLYLINKEDLIST\X64\DEBUG\VC142.PDB
D:\PROGRAMMING\C++\2TERM\LAB7_DOUBLYLINKEDLIST\X64\DEBUG\VC142.IDB
D:\PROGRAMMING\C++\2TERM\LAB7_DOUBLYLINKEDLIST\X64\DEBUG\TABLET.OBJ
D:\PROGRAMMING\C++\2TERM\LAB7_DOUBLYLINKEDLIST\X64\DEBUG\PORTABLEMACHINE.OBJ
D:\PROGRAMMING\C++\2TERM\LAB7_DOUBLYLINKEDLIST\X64\DEBUG\PC.OBJ
D:\PROGRAMMING\C++\2TERM\LAB7_DOUBLYLINKEDLIST\X64\DEBUG\MONOBLOCK.OBJ
D:\PROGRAMMING\C++\2TERM\LAB7_DOUBLYLINKEDLIST\X64\DEBUG\LAPTOP.OBJ
^D:\PROGRAMMING\C++\2TERM\LAB7_DOUBLYLINKEDLIST\COMPUTINGMACHINE.CPP|D:\PROGRAMMING\C++\2TERM\LAB7_DOUBLYLINKEDLIST\DOUBLYLINKEDLIST.CPP|D:\PROGRAMMING\C++\2TERM\LAB7_DOUBLYLINKEDLIST\LAPTOP.CPP|D:\PROGRAMMING\C++\2TERM\LAB7_DOUBLYLINKEDLIST\MAIN.CPP|D:\PROGRAMMING\C++\2TERM\LAB7_DOUBLYLINKEDLIST\MONOBLOCK.CPP|D:\PROGRAMMING\C++\2TERM\LAB7_DOUBLYLINKEDLIST\PC.CPP|D:\PROGRAMMING\C++\2TERM\LAB7_DOUBLYLINKEDLIST\PORTABLEMACHINE.CPP|D:\PROGRAMMING\C++\2TERM\LAB7_DOUBLYLINKEDLIST\STATIONARYMACHINE.CPP|D:\PROGRAMMING\C++\2TERM\LAB7_DOUBLYLINKEDLIST\TABLET.CPP
D:\PROGRAMMING\C++\2TERM\LAB7_DOUBLYLINKEDLIST\X64\DEBUG\VC142.PDB
D:\PROGRAMMING\C++\2TERM\LAB7_DOUBLYLINKEDLIST\X64\DEBUG\VC142.IDB
D:\PROGRAMMING\C++\2TERM\LAB7_DOUBLYLINKEDLIST\X64\DEBUG\MAIN.OBJ
D:\PROGRAMMING\C++\2TERM\LAB7_DOUBLYLINKEDLIST\X64\DEBUG\TABLET.OBJ
D:\PROGRAMMING\C++\2TERM\LAB7_DOUBLYLINKEDLIST\X64\DEBUG\STATIONARYMACHINE.OBJ
D:\PROGRAMMING\C++\2TERM\LAB7_DOUBLYLINKEDLIST\X64\DEBUG\PORTABLEMACHINE.OBJ
D:\PROGRAMMING\C++\2TERM\LAB7_DOUBLYLINKEDLIST\X64\DEBUG\PC.OBJ
D:\PROGRAMMING\C++\2TERM\LAB7_DOUBLYLINKEDLIST\X64\DEBUG\MONOBLOCK.OBJ
D:\PROGRAMMING\C++\2TERM\LAB7_DOUBLYLINKEDLIST\X64\DEBUG\LAPTOP.OBJ
D:\PROGRAMMING\C++\2TERM\LAB7_DOUBLYLINKEDLIST\X64\DEBUG\DOUBLYLINKEDLIST.OBJ
D:\PROGRAMMING\C++\2TERM\LAB7_DOUBLYLINKEDLIST\X64\DEBUG\COMPUTINGMACHINE.OBJ
^D:\PROGRAMMING\C++\2TERM\LAB7_DOUBLYLINKEDLIST\EXCEPTION.CPP|D:\PROGRAMMING\C++\2TERM\LAB7_DOUBLYLINKEDLIST\INTERFACE.CPP|D:\PROGRAMMING\C++\2TERM\LAB7_DOUBLYLINKEDLIST\MAIN.CPP
D:\PROGRAMMING\C++\2TERM\LAB7_DOUBLYLINKEDLIST\X64\DEBUG\VC142.PDB
D:\PROGRAMMING\C++\2TERM\LAB7_DOUBLYLINKEDLIST\X64\DEBUG\VC142.IDB
D:\PROGRAMMING\C++\2TERM\LAB7_DOUBLYLINKEDLIST\X64\DEBUG\INTERFACE.OBJ
D:\PROGRAMMING\C++\2TERM\LAB7_DOUBLYLINKEDLIST\X64\DEBUG\EXCEPTION.OBJ
^D:\PROGRAMMING\C++\2TERM\LAB7_DOUBLYLINKEDLIST\COMPUTINGMACHINE.CPP|D:\PROGRAMMING\C++\2TERM\LAB7_DOUBLYLINKEDLIST\DOUBLYLINKEDLIST.CPP|D:\PROGRAMMING\C++\2TERM\LAB7_DOUBLYLINKEDLIST\INTERFACE.CPP|D:\PROGRAMMING\C++\2TERM\LAB7_DOUBLYLINKEDLIST\LAPTOP.CPP|D:\PROGRAMMING\C++\2TERM\LAB7_DOUBLYLINKEDLIST\MAIN.CPP|D:\PROGRAMMING\C++\2TERM\LAB7_DOUBLYLINKEDLIST\MONOBLOCK.CPP|D:\PROGRAMMING\C++\2TERM\LAB7_DOUBLYLINKEDLIST\PC.CPP|D:\PROGRAMMING\C++\2TERM\LAB7_DOUBLYLINKEDLIST\PORTABLEMACHINE.CPP|D:\PROGRAMMING\C++\2TERM\LAB7_DOUBLYLINKEDLIST\STATIONARYMACHINE.CPP|D:\PROGRAMMING\C++\2TERM\LAB7_DOUBLYLINKEDLIST\TABLET.CPP
D:\PROGRAMMING\C++\2TERM\LAB7_DOUBLYLINKEDLIST\X64\DEBUG\VC142.PDB
D:\PROGRAMMING\C++\2TERM\LAB7_DOUBLYLINKEDLIST\X64\DEBUG\VC142.IDB
D:\PROGRAMMING\C++\2TERM\LAB7_DOUBLYLINKEDLIST\X64\DEBUG\TABLET.OBJ
D:\PROGRAMMING\C++\2TERM\LAB7_DOUBLYLINKEDLIST\X64\DEBUG\STATIONARYMACHINE.OBJ
D:\PROGRAMMING\C++\2TERM\LAB7_DOUBLYLINKEDLIST\X64\DEBUG\PORTABLEMACHINE.OBJ
D:\PROGRAMMING\C++\2TERM\LAB7_DOUBLYLINKEDLIST\X64\DEBUG\PC.OBJ
D:\PROGRAMMING\C++\2TERM\LAB7_DOUBLYLINKEDLIST\X64\DEBUG\MONOBLOCK.OBJ
D:\PROGRAMMING\C++\2TERM\LAB7_DOUBLYLINKEDLIST\X64\DEBUG\MAIN.OBJ
D:\PROGRAMMING\C++\2TERM\LAB7_DOUBLYLINKEDLIST\X64\DEBUG\LAPTOP.OBJ
D:\PROGRAMMING\C++\2TERM\LAB7_DOUBLYLINKEDLIST\X64\DEBUG\INTERFACE.OBJ
D:\PROGRAMMING\C++\2TERM\LAB7_DOUBLYLINKEDLIST\X64\DEBUG\DOUBLYLINKEDLIST.OBJ
D:\PROGRAMMING\C++\2TERM\LAB7_DOUBLYLINKEDLIST\X64\DEBUG\COMPUTINGMACHINE.OBJ
^D:\PROGRAMMING\C++\2TERM\LAB7_DOUBLYLINKEDLIST\COMPUTINGMACHINE.CPP
D:\PROGRAMMING\C++\2TERM\LAB7_DOUBLYLINKEDLIST\X64\DEBUG\VC142.PDB
^D:\PROGRAMMING\C++\2TERM\LAB7_DOUBLYLINKEDLIST\LAPTOP.CPP
D:\PROGRAMMING\C++\2TERM\LAB7_DOUBLYLINKEDLIST\X64\DEBUG\VC142.PDB
^D:\PROGRAMMING\C++\2TERM\LAB7_DOUBLYLINKEDLIST\MONOBLOCK.CPP
D:\PROGRAMMING\C++\2TERM\LAB7_DOUBLYLINKEDLIST\X64\DEBUG\VC142.PDB
^D:\PROGRAMMING\C++\2TERM\LAB7_DOUBLYLINKEDLIST\PC.CPP
D:\PROGRAMMING\C++\2TERM\LAB7_DOUBLYLINKEDLIST\X64\DEBUG\VC142.PDB
^D:\PROGRAMMING\C++\2TERM\LAB7_DOUBLYLINKEDLIST\STATIONARYMACHINE.CPP
D:\PROGRAMMING\C++\2TERM\LAB7_DOUBLYLINKEDLIST\X64\DEBUG\VC142.PDB
^D:\PROGRAMMING\C++\2TERM\LAB7_DOUBLYLINKEDLIST\TABLET.CPP
D:\PROGRAMMING\C++\2TERM\LAB7_DOUBLYLINKEDLIST\X64\DEBUG\VC142.PDB
^D:\PROGRAMMING\C++\2TERM\LAB7_DOUBLYLINKEDLIST\EXCEPTION.CPP
D:\PROGRAMMING\C++\2TERM\LAB7_DOUBLYLINKEDLIST\X64\DEBUG\VC142.PDB
D:\PROGRAMMING\C++\2TERM\LAB7_DOUBLYLINKEDLIST\X64\DEBUG\VC142.IDB
D:\PROGRAMMING\C++\2TERM\LAB7_DOUBLYLINKEDLIST\X64\DEBUG\EXCEPTION.OBJ
^D:\PROGRAMMING\C++\2TERM\LAB7_DOUBLYLINKEDLIST\DOUBLYLINKEDLIST.CPP|D:\PROGRAMMING\C++\2TERM\LAB7_DOUBLYLINKEDLIST\INTERFACE.CPP
D:\PROGRAMMING\C++\2TERM\LAB7_DOUBLYLINKEDLIST\X64\DEBUG\VC142.PDB
D:\PROGRAMMING\C++\2TERM\LAB7_DOUBLYLINKEDLIST\X64\DEBUG\VC142.IDB
D:\PROGRAMMING\C++\2TERM\LAB7_DOUBLYLINKEDLIST\X64\DEBUG\INTERFACE.OBJ
D:\PROGRAMMING\C++\2TERM\LAB7_DOUBLYLINKEDLIST\X64\DEBUG\DOUBLYLINKEDLIST.OBJ
^D:\PROGRAMMING\C++\2TERM\LAB7_DOUBLYLINKEDLIST\DOUBLYLINKEDLIST.CPP|D:\PROGRAMMING\C++\2TERM\LAB7_DOUBLYLINKEDLIST\MAIN.CPP
D:\PROGRAMMING\C++\2TERM\LAB7_DOUBLYLINKEDLIST\X64\DEBUG\VC142.PDB
D:\PROGRAMMING\C++\2TERM\LAB7_DOUBLYLINKEDLIST\X64\DEBUG\VC142.IDB
D:\PROGRAMMING\C++\2TERM\LAB7_DOUBLYLINKEDLIST\X64\DEBUG\MAIN.OBJ
D:\PROGRAMMING\C++\2TERM\LAB7_DOUBLYLINKEDLIST\X64\DEBUG\DOUBLYLINKEDLIST.OBJ
^D:\PROGRAMMING\C++\2TERM\LAB7_DOUBLYLINKEDLIST\DOUBLYLINKEDLIST.CPP|D:\PROGRAMMING\C++\2TERM\LAB7_DOUBLYLINKEDLIST\INTERFACE.CPP|D:\PROGRAMMING\C++\2TERM\LAB7_DOUBLYLINKEDLIST\MAIN.CPP
D:\PROGRAMMING\C++\2TERM\LAB7_DOUBLYLINKEDLIST\X64\DEBUG\VC142.PDB
D:\PROGRAMMING\C++\2TERM\LAB7_DOUBLYLINKEDLIST\X64\DEBUG\VC142.IDB
D:\PROGRAMMING\C++\2TERM\LAB7_DOUBLYLINKEDLIST\X64\DEBUG\MAIN.OBJ
D:\PROGRAMMING\C++\2TERM\LAB7_DOUBLYLINKEDLIST\X64\DEBUG\INTERFACE.OBJ
D:\PROGRAMMING\C++\2TERM\LAB7_DOUBLYLINKEDLIST\X64\DEBUG\DOUBLYLINKEDLIST.OBJ
^D:\PROGRAMMING\C++\2TERM\LAB7_DOUBLYLINKEDLIST\DOUBLYLINKEDLIST.CPP
D:\PROGRAMMING\C++\2TERM\LAB7_DOUBLYLINKEDLIST\X64\DEBUG\VC142.PDB
^D:\PROGRAMMING\C++\2TERM\LAB7_DOUBLYLINKEDLIST\INTERFACE.CPP|D:\PROGRAMMING\C++\2TERM\LAB7_DOUBLYLINKEDLIST\MAIN.CPP
D:\PROGRAMMING\C++\2TERM\LAB7_DOUBLYLINKEDLIST\X64\DEBUG\VC142.PDB
D:\PROGRAMMING\C++\2TERM\LAB7_DOUBLYLINKEDLIST\X64\DEBUG\VC142.IDB
D:\PROGRAMMING\C++\2TERM\LAB7_DOUBLYLINKEDLIST\X64\DEBUG\MAIN.OBJ
D:\PROGRAMMING\C++\2TERM\LAB7_DOUBLYLINKEDLIST\X64\DEBUG\INTERFACE.OBJ
^D:\PROGRAMMING\C++\2TERM\LAB7_DOUBLYLINKEDLIST\INTERFACE.CPP
D:\PROGRAMMING\C++\2TERM\LAB7_DOUBLYLINKEDLIST\X64\DEBUG\VC142.PDB
^D:\PROGRAMMING\C++\2TERM\LAB7_DOUBLYLINKEDLIST\MAIN.CPP|D:\PROGRAMMING\C++\2TERM\LAB7_DOUBLYLINKEDLIST\PORTABLEMACHINE.CPP
D:\PROGRAMMING\C++\2TERM\LAB7_DOUBLYLINKEDLIST\X64\DEBUG\VC142.PDB
D:\PROGRAMMING\C++\2TERM\LAB7_DOUBLYLINKEDLIST\X64\DEBUG\VC142.IDB
D:\PROGRAMMING\C++\2TERM\LAB7_DOUBLYLINKEDLIST\X64\DEBUG\MAIN.OBJ
D:\PROGRAMMING\C++\2TERM\LAB7_DOUBLYLINKEDLIST\X64\DEBUG\PORTABLEMACHINE.OBJ
^D:\PROGRAMMING\C++\2TERM\LAB7_DOUBLYLINKEDLIST\PORTABLEMACHINE.CPP
D:\PROGRAMMING\C++\2TERM\LAB7_DOUBLYLINKEDLIST\X64\DEBUG\VC142.PDB
^D:\PROGRAMMING\C++\2TERM\LAB7_DOUBLYLINKEDLIST\MAIN.CPP
D:\PROGRAMMING\C++\2TERM\LAB7_DOUBLYLINKEDLIST\X64\DEBUG\VC142.PDB
