^D:\PROGRAMMING\C++\2TERM\LAB10_FILEDDOUBLYLINKEDLIST++\ALGORITHM.CPP|D:\PROGRAMMING\C++\2TERM\LAB10_FILEDDOUBLYLINKEDLIST++\ARGUMENTOUTOFRANGEEXCEPTION.CPP|D:\PROGRAMMING\C++\2TERM\LAB10_FILEDDOUBLYLINKEDLIST++\BINARYFILECLASS.CPP|D:\PROGRAMMING\C++\2TERM\LAB10_FILEDDOUBLYLINKEDLIST++\COMPUTINGMACHINE.CPP|D:\PROGRAMMING\C++\2TERM\LAB10_FILEDDOUBLYLINKEDLIST++\CONSTLISTITERATOR.CPP|D:\PROGRAMMING\C++\2TERM\LAB10_FILEDDOUBLYLINKEDLIST++\DOUBLYLINKEDLIST.CPP|D:\PROGRAMMING\C++\2TERM\LAB10_FILEDDOUBLYLINKEDLIST++\EXCEPTION.CPP|D:\PROGRAMMING\C++\2TERM\LAB10_FILEDDOUBLYLINKEDLIST++\FILECLASS.CPP|D:\PROGRAMMING\C++\2TERM\LAB10_FILEDDOUBLYLINKEDLIST++\INPUTSIZEEXCEPTION.CPP|D:\PROGRAMMING\C++\2TERM\LAB10_FILEDDOUBLYLINKEDLIST++\INTERFACE.CPP|D:\PROGRAMMING\C++\2TERM\LAB10_FILEDDOUBLYLINKEDLIST++\INVALIDLANGUAGEEXCEPTION.CPP|D:\PROGRAMMING\C++\2TERM\LAB10_FILEDDOUBLYLINKEDLIST++\LAPTOP.CPP|D:\PROGRAMMING\C++\2TERM\LAB10_FILEDDOUBLYLINKEDLIST++\LISTITERATOR.CPP|D:\PROGRAMMING\C++\2TERM\LAB10_FILEDDOUBLYLINKEDLIST++\MAIN.CPP|D:\PROGRAMMING\C++\2TERM\LAB10_FILEDDOUBLYLINKEDLIST++\MONOBLOCK.CPP|D:\PROGRAMMING\C++\2TERM\LAB10_FILEDDOUBLYLINKEDLIST++\PC.CPP|D:\PROGRAMMING\C++\2TERM\LAB10_FILEDDOUBLYLINKEDLIST++\PORTABLEMACHINE.CPP|D:\PROGRAMMING\C++\2TERM\LAB10_FILEDDOUBLYLINKEDLIST++\STATIONARYMACHINE.CPP|D:\PROGRAMMING\C++\2TERM\LAB10_FILEDDOUBLYLINKEDLIST++\TABLET.CPP|D:\PROGRAMMING\C++\2TERM\LAB10_FILEDDOUBLYLINKEDLIST++\TEXTFILECLASS.CPP
D:\PROGRAMMING\C++\2TERM\LAB10_FILEDDOUBLYLINKEDLIST++\X64\DEBUG\VC142.PDB
D:\PROGRAMMING\C++\2TERM\LAB10_FILEDDOUBLYLINKEDLIST++\X64\DEBUG\VC142.IDB
D:\PROGRAMMING\C++\2TERM\LAB10_FILEDDOUBLYLINKEDLIST++\X64\DEBUG\TEXTFILECLASS.OBJ
D:\PROGRAMMING\C++\2TERM\LAB10_FILEDDOUBLYLINKEDLIST++\X64\DEBUG\TABLET.OBJ
D:\PROGRAMMING\C++\2TERM\LAB10_FILEDDOUBLYLINKEDLIST++\X64\DEBUG\STATIONARYMACHINE.OBJ
D:\PROGRAMMING\C++\2TERM\LAB10_FILEDDOUBLYLINKEDLIST++\X64\DEBUG\PORTABLEMACHINE.OBJ
D:\PROGRAMMING\C++\2TERM\LAB10_FILEDDOUBLYLINKEDLIST++\X64\DEBUG\PC.OBJ
D:\PROGRAMMING\C++\2TERM\LAB10_FILEDDOUBLYLINKEDLIST++\X64\DEBUG\MONOBLOCK.OBJ
D:\PROGRAMMING\C++\2TERM\LAB10_FILEDDOUBLYLINKEDLIST++\X64\DEBUG\MAIN.OBJ
D:\PROGRAMMING\C++\2TERM\LAB10_FILEDDOUBLYLINKEDLIST++\X64\DEBUG\LISTITERATOR.OBJ
D:\PROGRAMMING\C++\2TERM\LAB10_FILEDDOUBLYLINKEDLIST++\X64\DEBUG\LAPTOP.OBJ
D:\PROGRAMMING\C++\2TERM\LAB10_FILEDDOUBLYLINKEDLIST++\X64\DEBUG\INVALIDLANGUAGEEXCEPTION.OBJ
D:\PROGRAMMING\C++\2TERM\LAB10_FILEDDOUBLYLINKEDLIST++\X64\DEBUG\INTERFACE.OBJ
D:\PROGRAMMING\C++\2TERM\LAB10_FILEDDOUBLYLINKEDLIST++\X64\DEBUG\INPUTSIZEEXCEPTION.OBJ
D:\PROGRAMMING\C++\2TERM\LAB10_FILEDDOUBLYLINKEDLIST++\X64\DEBUG\FILECLASS.OBJ
D:\PROGRAMMING\C++\2TERM\LAB10_FILEDDOUBLYLINKEDLIST++\X64\DEBUG\EXCEPTION.OBJ
D:\PROGRAMMING\C++\2TERM\LAB10_FILEDDOUBLYLINKEDLIST++\X64\DEBUG\DOUBLYLINKEDLIST.OBJ
D:\PROGRAMMING\C++\2TERM\LAB10_FILEDDOUBLYLINKEDLIST++\X64\DEBUG\CONSTLISTITERATOR.OBJ
D:\PROGRAMMING\C++\2TERM\LAB10_FILEDDOUBLYLINKEDLIST++\X64\DEBUG\COMPUTINGMACHINE.OBJ
D:\PROGRAMMING\C++\2TERM\LAB10_FILEDDOUBLYLINKEDLIST++\X64\DEBUG\BINARYFILECLASS.OBJ
D:\PROGRAMMING\C++\2TERM\LAB10_FILEDDOUBLYLINKEDLIST++\X64\DEBUG\ARGUMENTOUTOFRANGEEXCEPTION.OBJ
D:\PROGRAMMING\C++\2TERM\LAB10_FILEDDOUBLYLINKEDLIST++\X64\DEBUG\ALGORITHM.OBJ
^D:\PROGRAMMING\C++\2TERM\LAB10_FILEDDOUBLYLINKEDLIST++\ARGUMENTOUTOFRANGEEXCEPTION.CPP
D:\PROGRAMMING\C++\2TERM\LAB10_FILEDDOUBLYLINKEDLIST++\X64\DEBUG\VC142.PDB
^D:\PROGRAMMING\C++\2TERM\LAB10_FILEDDOUBLYLINKEDLIST++\CONSTLISTITERATOR.CPP
D:\PROGRAMMING\C++\2TERM\LAB10_FILEDDOUBLYLINKEDLIST++\X64\DEBUG\VC142.PDB
^D:\PROGRAMMING\C++\2TERM\LAB10_FILEDDOUBLYLINKEDLIST++\EXCEPTION.CPP
D:\PROGRAMMING\C++\2TERM\LAB10_FILEDDOUBLYLINKEDLIST++\X64\DEBUG\VC142.PDB
^D:\PROGRAMMING\C++\2TERM\LAB10_FILEDDOUBLYLINKEDLIST++\FILECLASS.CPP
D:\PROGRAMMING\C++\2TERM\LAB10_FILEDDOUBLYLINKEDLIST++\X64\DEBUG\VC142.PDB
^D:\PROGRAMMING\C++\2TERM\LAB10_FILEDDOUBLYLINKEDLIST++\INPUTSIZEEXCEPTION.CPP
D:\PROGRAMMING\C++\2TERM\LAB10_FILEDDOUBLYLINKEDLIST++\X64\DEBUG\VC142.PDB
^D:\PROGRAMMING\C++\2TERM\LAB10_FILEDDOUBLYLINKEDLIST++\INVALIDLANGUAGEEXCEPTION.CPP
D:\PROGRAMMING\C++\2TERM\LAB10_FILEDDOUBLYLINKEDLIST++\X64\DEBUG\VC142.PDB
^D:\PROGRAMMING\C++\2TERM\LAB10_FILEDDOUBLYLINKEDLIST++\LISTITERATOR.CPP
D:\PROGRAMMING\C++\2TERM\LAB10_FILEDDOUBLYLINKEDLIST++\X64\DEBUG\VC142.PDB
^D:\PROGRAMMING\C++\2TERM\LAB10_FILEDDOUBLYLINKEDLIST++\BINARYFILECLASS.CPP|D:\PROGRAMMING\C++\2TERM\LAB10_FILEDDOUBLYLINKEDLIST++\INTERFACE.CPP|D:\PROGRAMMING\C++\2TERM\LAB10_FILEDDOUBLYLINKEDLIST++\LAPTOP.CPP|D:\PROGRAMMING\C++\2TERM\LAB10_FILEDDOUBLYLINKEDLIST++\MAIN.CPP
D:\PROGRAMMING\C++\2TERM\LAB10_FILEDDOUBLYLINKEDLIST++\X64\DEBUG\VC142.PDB
D:\PROGRAMMING\C++\2TERM\LAB10_FILEDDOUBLYLINKEDLIST++\X64\DEBUG\VC142.IDB
D:\PROGRAMMING\C++\2TERM\LAB10_FILEDDOUBLYLINKEDLIST++\X64\DEBUG\MAIN.OBJ
D:\PROGRAMMING\C++\2TERM\LAB10_FILEDDOUBLYLINKEDLIST++\X64\DEBUG\LAPTOP.OBJ
D:\PROGRAMMING\C++\2TERM\LAB10_FILEDDOUBLYLINKEDLIST++\X64\DEBUG\INTERFACE.OBJ
D:\PROGRAMMING\C++\2TERM\LAB10_FILEDDOUBLYLINKEDLIST++\X64\DEBUG\BINARYFILECLASS.OBJ
^D:\PROGRAMMING\C++\2TERM\LAB10_FILEDDOUBLYLINKEDLIST++\COMPUTINGMACHINE.CPP|D:\PROGRAMMING\C++\2TERM\LAB10_FILEDDOUBLYLINKEDLIST++\DOUBLYLINKEDLIST.CPP|D:\PROGRAMMING\C++\2TERM\LAB10_FILEDDOUBLYLINKEDLIST++\INTERFACE.CPP|D:\PROGRAMMING\C++\2TERM\LAB10_FILEDDOUBLYLINKEDLIST++\LAPTOP.CPP|D:\PROGRAMMING\C++\2TERM\LAB10_FILEDDOUBLYLINKEDLIST++\MAIN.CPP|D:\PROGRAMMING\C++\2TERM\LAB10_FILEDDOUBLYLINKEDLIST++\MONOBLOCK.CPP|D:\PROGRAMMING\C++\2TERM\LAB10_FILEDDOUBLYLINKEDLIST++\PC.CPP|D:\PROGRAMMING\C++\2TERM\LAB10_FILEDDOUBLYLINKEDLIST++\PORTABLEMACHINE.CPP|D:\PROGRAMMING\C++\2TERM\LAB10_FILEDDOUBLYLINKEDLIST++\STATIONARYMACHINE.CPP|D:\PROGRAMMING\C++\2TERM\LAB10_FILEDDOUBLYLINKEDLIST++\TABLET.CPP
D:\PROGRAMMING\C++\2TERM\LAB10_FILEDDOUBLYLINKEDLIST++\X64\DEBUG\VC142.PDB
D:\PROGRAMMING\C++\2TERM\LAB10_FILEDDOUBLYLINKEDLIST++\X64\DEBUG\VC142.IDB
D:\PROGRAMMING\C++\2TERM\LAB10_FILEDDOUBLYLINKEDLIST++\X64\DEBUG\MAIN.OBJ
D:\PROGRAMMING\C++\2TERM\LAB10_FILEDDOUBLYLINKEDLIST++\X64\DEBUG\TABLET.OBJ
D:\PROGRAMMING\C++\2TERM\LAB10_FILEDDOUBLYLINKEDLIST++\X64\DEBUG\STATIONARYMACHINE.OBJ
D:\PROGRAMMING\C++\2TERM\LAB10_FILEDDOUBLYLINKEDLIST++\X64\DEBUG\PORTABLEMACHINE.OBJ
D:\PROGRAMMING\C++\2TERM\LAB10_FILEDDOUBLYLINKEDLIST++\X64\DEBUG\PC.OBJ
D:\PROGRAMMING\C++\2TERM\LAB10_FILEDDOUBLYLINKEDLIST++\X64\DEBUG\MONOBLOCK.OBJ
D:\PROGRAMMING\C++\2TERM\LAB10_FILEDDOUBLYLINKEDLIST++\X64\DEBUG\LAPTOP.OBJ
D:\PROGRAMMING\C++\2TERM\LAB10_FILEDDOUBLYLINKEDLIST++\X64\DEBUG\INTERFACE.OBJ
D:\PROGRAMMING\C++\2TERM\LAB10_FILEDDOUBLYLINKEDLIST++\X64\DEBUG\DOUBLYLINKEDLIST.OBJ
D:\PROGRAMMING\C++\2TERM\LAB10_FILEDDOUBLYLINKEDLIST++\X64\DEBUG\COMPUTINGMACHINE.OBJ
^D:\PROGRAMMING\C++\2TERM\LAB10_FILEDDOUBLYLINKEDLIST++\COMPUTINGMACHINE.CPP|D:\PROGRAMMING\C++\2TERM\LAB10_FILEDDOUBLYLINKEDLIST++\DOUBLYLINKEDLIST.CPP|D:\PROGRAMMING\C++\2TERM\LAB10_FILEDDOUBLYLINKEDLIST++\INTERFACE.CPP|D:\PROGRAMMING\C++\2TERM\LAB10_FILEDDOUBLYLINKEDLIST++\LAPTOP.CPP|D:\PROGRAMMING\C++\2TERM\LAB10_FILEDDOUBLYLINKEDLIST++\MONOBLOCK.CPP|D:\PROGRAMMING\C++\2TERM\LAB10_FILEDDOUBLYLINKEDLIST++\PC.CPP|D:\PROGRAMMING\C++\2TERM\LAB10_FILEDDOUBLYLINKEDLIST++\PORTABLEMACHINE.CPP|D:\PROGRAMMING\C++\2TERM\LAB10_FILEDDOUBLYLINKEDLIST++\STATIONARYMACHINE.CPP|D:\PROGRAMMING\C++\2TERM\LAB10_FILEDDOUBLYLINKEDLIST++\TABLET.CPP
D:\PROGRAMMING\C++\2TERM\LAB10_FILEDDOUBLYLINKEDLIST++\X64\DEBUG\VC142.PDB
D:\PROGRAMMING\C++\2TERM\LAB10_FILEDDOUBLYLINKEDLIST++\X64\DEBUG\VC142.IDB
D:\PROGRAMMING\C++\2TERM\LAB10_FILEDDOUBLYLINKEDLIST++\X64\DEBUG\TABLET.OBJ
D:\PROGRAMMING\C++\2TERM\LAB10_FILEDDOUBLYLINKEDLIST++\X64\DEBUG\STATIONARYMACHINE.OBJ
D:\PROGRAMMING\C++\2TERM\LAB10_FILEDDOUBLYLINKEDLIST++\X64\DEBUG\PORTABLEMACHINE.OBJ
D:\PROGRAMMING\C++\2TERM\LAB10_FILEDDOUBLYLINKEDLIST++\X64\DEBUG\PC.OBJ
D:\PROGRAMMING\C++\2TERM\LAB10_FILEDDOUBLYLINKEDLIST++\X64\DEBUG\MONOBLOCK.OBJ
D:\PROGRAMMING\C++\2TERM\LAB10_FILEDDOUBLYLINKEDLIST++\X64\DEBUG\LAPTOP.OBJ
D:\PROGRAMMING\C++\2TERM\LAB10_FILEDDOUBLYLINKEDLIST++\X64\DEBUG\INTERFACE.OBJ
D:\PROGRAMMING\C++\2TERM\LAB10_FILEDDOUBLYLINKEDLIST++\X64\DEBUG\DOUBLYLINKEDLIST.OBJ
D:\PROGRAMMING\C++\2TERM\LAB10_FILEDDOUBLYLINKEDLIST++\X64\DEBUG\COMPUTINGMACHINE.OBJ
^D:\PROGRAMMING\C++\2TERM\LAB10_FILEDDOUBLYLINKEDLIST++\COMPUTINGMACHINE.CPP|D:\PROGRAMMING\C++\2TERM\LAB10_FILEDDOUBLYLINKEDLIST++\DOUBLYLINKEDLIST.CPP|D:\PROGRAMMING\C++\2TERM\LAB10_FILEDDOUBLYLINKEDLIST++\LAPTOP.CPP|D:\PROGRAMMING\C++\2TERM\LAB10_FILEDDOUBLYLINKEDLIST++\MAIN.CPP|D:\PROGRAMMING\C++\2TERM\LAB10_FILEDDOUBLYLINKEDLIST++\MONOBLOCK.CPP|D:\PROGRAMMING\C++\2TERM\LAB10_FILEDDOUBLYLINKEDLIST++\PC.CPP|D:\PROGRAMMING\C++\2TERM\LAB10_FILEDDOUBLYLINKEDLIST++\PORTABLEMACHINE.CPP|D:\PROGRAMMING\C++\2TERM\LAB10_FILEDDOUBLYLINKEDLIST++\STATIONARYMACHINE.CPP|D:\PROGRAMMING\C++\2TERM\LAB10_FILEDDOUBLYLINKEDLIST++\TABLET.CPP
D:\PROGRAMMING\C++\2TERM\LAB10_FILEDDOUBLYLINKEDLIST++\X64\DEBUG\VC142.PDB
D:\PROGRAMMING\C++\2TERM\LAB10_FILEDDOUBLYLINKEDLIST++\X64\DEBUG\VC142.IDB
D:\PROGRAMMING\C++\2TERM\LAB10_FILEDDOUBLYLINKEDLIST++\X64\DEBUG\MAIN.OBJ
D:\PROGRAMMING\C++\2TERM\LAB10_FILEDDOUBLYLINKEDLIST++\X64\DEBUG\TABLET.OBJ
D:\PROGRAMMING\C++\2TERM\LAB10_FILEDDOUBLYLINKEDLIST++\X64\DEBUG\STATIONARYMACHINE.OBJ
D:\PROGRAMMING\C++\2TERM\LAB10_FILEDDOUBLYLINKEDLIST++\X64\DEBUG\PORTABLEMACHINE.OBJ
D:\PROGRAMMING\C++\2TERM\LAB10_FILEDDOUBLYLINKEDLIST++\X64\DEBUG\PC.OBJ
D:\PROGRAMMING\C++\2TERM\LAB10_FILEDDOUBLYLINKEDLIST++\X64\DEBUG\MONOBLOCK.OBJ
D:\PROGRAMMING\C++\2TERM\LAB10_FILEDDOUBLYLINKEDLIST++\X64\DEBUG\LAPTOP.OBJ
D:\PROGRAMMING\C++\2TERM\LAB10_FILEDDOUBLYLINKEDLIST++\X64\DEBUG\DOUBLYLINKEDLIST.OBJ
D:\PROGRAMMING\C++\2TERM\LAB10_FILEDDOUBLYLINKEDLIST++\X64\DEBUG\COMPUTINGMACHINE.OBJ
^D:\PROGRAMMING\C++\2TERM\LAB10_FILEDDOUBLYLINKEDLIST++\BINARYFILECLASS.CPP|D:\PROGRAMMING\C++\2TERM\LAB10_FILEDDOUBLYLINKEDLIST++\DOUBLYLINKEDLIST.CPP|D:\PROGRAMMING\C++\2TERM\LAB10_FILEDDOUBLYLINKEDLIST++\MAIN.CPP
D:\PROGRAMMING\C++\2TERM\LAB10_FILEDDOUBLYLINKEDLIST++\X64\DEBUG\VC142.PDB
D:\PROGRAMMING\C++\2TERM\LAB10_FILEDDOUBLYLINKEDLIST++\X64\DEBUG\VC142.IDB
D:\PROGRAMMING\C++\2TERM\LAB10_FILEDDOUBLYLINKEDLIST++\X64\DEBUG\MAIN.OBJ
D:\PROGRAMMING\C++\2TERM\LAB10_FILEDDOUBLYLINKEDLIST++\X64\DEBUG\DOUBLYLINKEDLIST.OBJ
D:\PROGRAMMING\C++\2TERM\LAB10_FILEDDOUBLYLINKEDLIST++\X64\DEBUG\BINARYFILECLASS.OBJ
^D:\PROGRAMMING\C++\2TERM\LAB10_FILEDDOUBLYLINKEDLIST++\BINARYFILECLASS.CPP|D:\PROGRAMMING\C++\2TERM\LAB10_FILEDDOUBLYLINKEDLIST++\MAIN.CPP
D:\PROGRAMMING\C++\2TERM\LAB10_FILEDDOUBLYLINKEDLIST++\X64\DEBUG\VC142.PDB
D:\PROGRAMMING\C++\2TERM\LAB10_FILEDDOUBLYLINKEDLIST++\X64\DEBUG\VC142.IDB
D:\PROGRAMMING\C++\2TERM\LAB10_FILEDDOUBLYLINKEDLIST++\X64\DEBUG\MAIN.OBJ
D:\PROGRAMMING\C++\2TERM\LAB10_FILEDDOUBLYLINKEDLIST++\X64\DEBUG\BINARYFILECLASS.OBJ
^D:\PROGRAMMING\C++\2TERM\LAB10_FILEDDOUBLYLINKEDLIST++\ALGORITHM.CPP|D:\PROGRAMMING\C++\2TERM\LAB10_FILEDDOUBLYLINKEDLIST++\DOUBLYLINKEDLIST.CPP|D:\PROGRAMMING\C++\2TERM\LAB10_FILEDDOUBLYLINKEDLIST++\INTERFACE.CPP|D:\PROGRAMMING\C++\2TERM\LAB10_FILEDDOUBLYLINKEDLIST++\MAIN.CPP
D:\PROGRAMMING\C++\2TERM\LAB10_FILEDDOUBLYLINKEDLIST++\X64\DEBUG\VC142.PDB
D:\PROGRAMMING\C++\2TERM\LAB10_FILEDDOUBLYLINKEDLIST++\X64\DEBUG\VC142.IDB
D:\PROGRAMMING\C++\2TERM\LAB10_FILEDDOUBLYLINKEDLIST++\X64\DEBUG\MAIN.OBJ
D:\PROGRAMMING\C++\2TERM\LAB10_FILEDDOUBLYLINKEDLIST++\X64\DEBUG\INTERFACE.OBJ
D:\PROGRAMMING\C++\2TERM\LAB10_FILEDDOUBLYLINKEDLIST++\X64\DEBUG\DOUBLYLINKEDLIST.OBJ
D:\PROGRAMMING\C++\2TERM\LAB10_FILEDDOUBLYLINKEDLIST++\X64\DEBUG\ALGORITHM.OBJ
^D:\PROGRAMMING\C++\2TERM\LAB10_FILEDDOUBLYLINKEDLIST++\ALGORITHM.CPP
D:\PROGRAMMING\C++\2TERM\LAB10_FILEDDOUBLYLINKEDLIST++\X64\DEBUG\VC142.PDB
^D:\PROGRAMMING\C++\2TERM\LAB10_FILEDDOUBLYLINKEDLIST++\BINARYFILECLASS.CPP|D:\PROGRAMMING\C++\2TERM\LAB10_FILEDDOUBLYLINKEDLIST++\COMPUTINGMACHINE.CPP|D:\PROGRAMMING\C++\2TERM\LAB10_FILEDDOUBLYLINKEDLIST++\DOUBLYLINKEDLIST.CPP|D:\PROGRAMMING\C++\2TERM\LAB10_FILEDDOUBLYLINKEDLIST++\INTERFACE.CPP|D:\PROGRAMMING\C++\2TERM\LAB10_FILEDDOUBLYLINKEDLIST++\LAPTOP.CPP|D:\PROGRAMMING\C++\2TERM\LAB10_FILEDDOUBLYLINKEDLIST++\MAIN.CPP|D:\PROGRAMMING\C++\2TERM\LAB10_FILEDDOUBLYLINKEDLIST++\MONOBLOCK.CPP|D:\PROGRAMMING\C++\2TERM\LAB10_FILEDDOUBLYLINKEDLIST++\PC.CPP|D:\PROGRAMMING\C++\2TERM\LAB10_FILEDDOUBLYLINKEDLIST++\PORTABLEMACHINE.CPP|D:\PROGRAMMING\C++\2TERM\LAB10_FILEDDOUBLYLINKEDLIST++\STATIONARYMACHINE.CPP|D:\PROGRAMMING\C++\2TERM\LAB10_FILEDDOUBLYLINKEDLIST++\TABLET.CPP
D:\PROGRAMMING\C++\2TERM\LAB10_FILEDDOUBLYLINKEDLIST++\X64\DEBUG\VC142.PDB
D:\PROGRAMMING\C++\2TERM\LAB10_FILEDDOUBLYLINKEDLIST++\X64\DEBUG\VC142.IDB
D:\PROGRAMMING\C++\2TERM\LAB10_FILEDDOUBLYLINKEDLIST++\X64\DEBUG\TABLET.OBJ
D:\PROGRAMMING\C++\2TERM\LAB10_FILEDDOUBLYLINKEDLIST++\X64\DEBUG\STATIONARYMACHINE.OBJ
D:\PROGRAMMING\C++\2TERM\LAB10_FILEDDOUBLYLINKEDLIST++\X64\DEBUG\PORTABLEMACHINE.OBJ
D:\PROGRAMMING\C++\2TERM\LAB10_FILEDDOUBLYLINKEDLIST++\X64\DEBUG\PC.OBJ
D:\PROGRAMMING\C++\2TERM\LAB10_FILEDDOUBLYLINKEDLIST++\X64\DEBUG\MONOBLOCK.OBJ
D:\PROGRAMMING\C++\2TERM\LAB10_FILEDDOUBLYLINKEDLIST++\X64\DEBUG\LAPTOP.OBJ
D:\PROGRAMMING\C++\2TERM\LAB10_FILEDDOUBLYLINKEDLIST++\X64\DEBUG\DOUBLYLINKEDLIST.OBJ
D:\PROGRAMMING\C++\2TERM\LAB10_FILEDDOUBLYLINKEDLIST++\X64\DEBUG\COMPUTINGMACHINE.OBJ
D:\PROGRAMMING\C++\2TERM\LAB10_FILEDDOUBLYLINKEDLIST++\X64\DEBUG\BINARYFILECLASS.OBJ
^D:\PROGRAMMING\C++\2TERM\LAB10_FILEDDOUBLYLINKEDLIST++\INTERFACE.CPP|D:\PROGRAMMING\C++\2TERM\LAB10_FILEDDOUBLYLINKEDLIST++\LAPTOP.CPP|D:\PROGRAMMING\C++\2TERM\LAB10_FILEDDOUBLYLINKEDLIST++\MAIN.CPP
D:\PROGRAMMING\C++\2TERM\LAB10_FILEDDOUBLYLINKEDLIST++\X64\DEBUG\VC142.PDB
D:\PROGRAMMING\C++\2TERM\LAB10_FILEDDOUBLYLINKEDLIST++\X64\DEBUG\VC142.IDB
D:\PROGRAMMING\C++\2TERM\LAB10_FILEDDOUBLYLINKEDLIST++\X64\DEBUG\MAIN.OBJ
D:\PROGRAMMING\C++\2TERM\LAB10_FILEDDOUBLYLINKEDLIST++\X64\DEBUG\LAPTOP.OBJ
D:\PROGRAMMING\C++\2TERM\LAB10_FILEDDOUBLYLINKEDLIST++\X64\DEBUG\INTERFACE.OBJ
^D:\PROGRAMMING\C++\2TERM\LAB10_FILEDDOUBLYLINKEDLIST++\INTERFACE.CPP|D:\PROGRAMMING\C++\2TERM\LAB10_FILEDDOUBLYLINKEDLIST++\MAIN.CPP
D:\PROGRAMMING\C++\2TERM\LAB10_FILEDDOUBLYLINKEDLIST++\X64\DEBUG\VC142.PDB
D:\PROGRAMMING\C++\2TERM\LAB10_FILEDDOUBLYLINKEDLIST++\X64\DEBUG\VC142.IDB
D:\PROGRAMMING\C++\2TERM\LAB10_FILEDDOUBLYLINKEDLIST++\X64\DEBUG\MAIN.OBJ
D:\PROGRAMMING\C++\2TERM\LAB10_FILEDDOUBLYLINKEDLIST++\X64\DEBUG\INTERFACE.OBJ
^D:\PROGRAMMING\C++\2TERM\LAB10_FILEDDOUBLYLINKEDLIST++\BINARYFILECLASS.CPP|D:\PROGRAMMING\C++\2TERM\LAB10_FILEDDOUBLYLINKEDLIST++\INTERFACE.CPP
D:\PROGRAMMING\C++\2TERM\LAB10_FILEDDOUBLYLINKEDLIST++\X64\DEBUG\VC142.PDB
D:\PROGRAMMING\C++\2TERM\LAB10_FILEDDOUBLYLINKEDLIST++\X64\DEBUG\VC142.IDB
D:\PROGRAMMING\C++\2TERM\LAB10_FILEDDOUBLYLINKEDLIST++\X64\DEBUG\INTERFACE.OBJ
D:\PROGRAMMING\C++\2TERM\LAB10_FILEDDOUBLYLINKEDLIST++\X64\DEBUG\BINARYFILECLASS.OBJ
^D:\PROGRAMMING\C++\2TERM\LAB10_FILEDDOUBLYLINKEDLIST++\BINARYFILECLASS.CPP|D:\PROGRAMMING\C++\2TERM\LAB10_FILEDDOUBLYLINKEDLIST++\DOUBLYLINKEDLIST.CPP|D:\PROGRAMMING\C++\2TERM\LAB10_FILEDDOUBLYLINKEDLIST++\INTERFACE.CPP|D:\PROGRAMMING\C++\2TERM\LAB10_FILEDDOUBLYLINKEDLIST++\MAIN.CPP|D:\PROGRAMMING\C++\2TERM\LAB10_FILEDDOUBLYLINKEDLIST++\TEXTFILECLASS.CPP
D:\PROGRAMMING\C++\2TERM\LAB10_FILEDDOUBLYLINKEDLIST++\X64\DEBUG\VC142.PDB
D:\PROGRAMMING\C++\2TERM\LAB10_FILEDDOUBLYLINKEDLIST++\X64\DEBUG\VC142.IDB
D:\PROGRAMMING\C++\2TERM\LAB10_FILEDDOUBLYLINKEDLIST++\X64\DEBUG\MAIN.OBJ
D:\PROGRAMMING\C++\2TERM\LAB10_FILEDDOUBLYLINKEDLIST++\X64\DEBUG\TEXTFILECLASS.OBJ
D:\PROGRAMMING\C++\2TERM\LAB10_FILEDDOUBLYLINKEDLIST++\X64\DEBUG\INTERFACE.OBJ
D:\PROGRAMMING\C++\2TERM\LAB10_FILEDDOUBLYLINKEDLIST++\X64\DEBUG\DOUBLYLINKEDLIST.OBJ
D:\PROGRAMMING\C++\2TERM\LAB10_FILEDDOUBLYLINKEDLIST++\X64\DEBUG\BINARYFILECLASS.OBJ
^D:\PROGRAMMING\C++\2TERM\LAB10_FILEDDOUBLYLINKEDLIST++\BINARYFILECLASS.CPP|D:\PROGRAMMING\C++\2TERM\LAB10_FILEDDOUBLYLINKEDLIST++\COMPUTINGMACHINE.CPP|D:\PROGRAMMING\C++\2TERM\LAB10_FILEDDOUBLYLINKEDLIST++\DOUBLYLINKEDLIST.CPP|D:\PROGRAMMING\C++\2TERM\LAB10_FILEDDOUBLYLINKEDLIST++\INTERFACE.CPP|D:\PROGRAMMING\C++\2TERM\LAB10_FILEDDOUBLYLINKEDLIST++\LAPTOP.CPP|D:\PROGRAMMING\C++\2TERM\LAB10_FILEDDOUBLYLINKEDLIST++\MAIN.CPP|D:\PROGRAMMING\C++\2TERM\LAB10_FILEDDOUBLYLINKEDLIST++\MONOBLOCK.CPP|D:\PROGRAMMING\C++\2TERM\LAB10_FILEDDOUBLYLINKEDLIST++\PC.CPP|D:\PROGRAMMING\C++\2TERM\LAB10_FILEDDOUBLYLINKEDLIST++\PORTABLEMACHINE.CPP|D:\PROGRAMMING\C++\2TERM\LAB10_FILEDDOUBLYLINKEDLIST++\STATIONARYMACHINE.CPP|D:\PROGRAMMING\C++\2TERM\LAB10_FILEDDOUBLYLINKEDLIST++\TABLET.CPP|D:\PROGRAMMING\C++\2TERM\LAB10_FILEDDOUBLYLINKEDLIST++\TEXTFILECLASS.CPP
D:\PROGRAMMING\C++\2TERM\LAB10_FILEDDOUBLYLINKEDLIST++\X64\DEBUG\VC142.PDB
D:\PROGRAMMING\C++\2TERM\LAB10_FILEDDOUBLYLINKEDLIST++\X64\DEBUG\VC142.IDB
D:\PROGRAMMING\C++\2TERM\LAB10_FILEDDOUBLYLINKEDLIST++\X64\DEBUG\MAIN.OBJ
D:\PROGRAMMING\C++\2TERM\LAB10_FILEDDOUBLYLINKEDLIST++\X64\DEBUG\TEXTFILECLASS.OBJ
D:\PROGRAMMING\C++\2TERM\LAB10_FILEDDOUBLYLINKEDLIST++\X64\DEBUG\TABLET.OBJ
D:\PROGRAMMING\C++\2TERM\LAB10_FILEDDOUBLYLINKEDLIST++\X64\DEBUG\STATIONARYMACHINE.OBJ
D:\PROGRAMMING\C++\2TERM\LAB10_FILEDDOUBLYLINKEDLIST++\X64\DEBUG\PORTABLEMACHINE.OBJ
D:\PROGRAMMING\C++\2TERM\LAB10_FILEDDOUBLYLINKEDLIST++\X64\DEBUG\PC.OBJ
D:\PROGRAMMING\C++\2TERM\LAB10_FILEDDOUBLYLINKEDLIST++\X64\DEBUG\MONOBLOCK.OBJ
D:\PROGRAMMING\C++\2TERM\LAB10_FILEDDOUBLYLINKEDLIST++\X64\DEBUG\LAPTOP.OBJ
D:\PROGRAMMING\C++\2TERM\LAB10_FILEDDOUBLYLINKEDLIST++\X64\DEBUG\INTERFACE.OBJ
D:\PROGRAMMING\C++\2TERM\LAB10_FILEDDOUBLYLINKEDLIST++\X64\DEBUG\DOUBLYLINKEDLIST.OBJ
D:\PROGRAMMING\C++\2TERM\LAB10_FILEDDOUBLYLINKEDLIST++\X64\DEBUG\COMPUTINGMACHINE.OBJ
D:\PROGRAMMING\C++\2TERM\LAB10_FILEDDOUBLYLINKEDLIST++\X64\DEBUG\BINARYFILECLASS.OBJ
^D:\PROGRAMMING\C++\2TERM\LAB10_FILEDDOUBLYLINKEDLIST++\BINARYFILECLASS.CPP
D:\PROGRAMMING\C++\2TERM\LAB10_FILEDDOUBLYLINKEDLIST++\X64\DEBUG\VC142.PDB
^D:\PROGRAMMING\C++\2TERM\LAB10_FILEDDOUBLYLINKEDLIST++\COMPUTINGMACHINE.CPP
D:\PROGRAMMING\C++\2TERM\LAB10_FILEDDOUBLYLINKEDLIST++\X64\DEBUG\VC142.PDB
^D:\PROGRAMMING\C++\2TERM\LAB10_FILEDDOUBLYLINKEDLIST++\MAIN.CPP|D:\PROGRAMMING\C++\2TERM\LAB10_FILEDDOUBLYLINKEDLIST++\TEXTFILECLASS.CPP
D:\PROGRAMMING\C++\2TERM\LAB10_FILEDDOUBLYLINKEDLIST++\X64\DEBUG\VC142.PDB
D:\PROGRAMMING\C++\2TERM\LAB10_FILEDDOUBLYLINKEDLIST++\X64\DEBUG\VC142.IDB
D:\PROGRAMMING\C++\2TERM\LAB10_FILEDDOUBLYLINKEDLIST++\X64\DEBUG\MAIN.OBJ
D:\PROGRAMMING\C++\2TERM\LAB10_FILEDDOUBLYLINKEDLIST++\X64\DEBUG\TEXTFILECLASS.OBJ
^D:\PROGRAMMING\C++\2TERM\LAB10_FILEDDOUBLYLINKEDLIST++\DOUBLYLINKEDLIST.CPP|D:\PROGRAMMING\C++\2TERM\LAB10_FILEDDOUBLYLINKEDLIST++\INTERFACE.CPP|D:\PROGRAMMING\C++\2TERM\LAB10_FILEDDOUBLYLINKEDLIST++\MAIN.CPP|D:\PROGRAMMING\C++\2TERM\LAB10_FILEDDOUBLYLINKEDLIST++\PC.CPP|D:\PROGRAMMING\C++\2TERM\LAB10_FILEDDOUBLYLINKEDLIST++\TEXTFILECLASS.CPP
D:\PROGRAMMING\C++\2TERM\LAB10_FILEDDOUBLYLINKEDLIST++\X64\DEBUG\VC142.PDB
D:\PROGRAMMING\C++\2TERM\LAB10_FILEDDOUBLYLINKEDLIST++\X64\DEBUG\VC142.IDB
D:\PROGRAMMING\C++\2TERM\LAB10_FILEDDOUBLYLINKEDLIST++\X64\DEBUG\MAIN.OBJ
D:\PROGRAMMING\C++\2TERM\LAB10_FILEDDOUBLYLINKEDLIST++\X64\DEBUG\TEXTFILECLASS.OBJ
D:\PROGRAMMING\C++\2TERM\LAB10_FILEDDOUBLYLINKEDLIST++\X64\DEBUG\PC.OBJ
D:\PROGRAMMING\C++\2TERM\LAB10_FILEDDOUBLYLINKEDLIST++\X64\DEBUG\INTERFACE.OBJ
D:\PROGRAMMING\C++\2TERM\LAB10_FILEDDOUBLYLINKEDLIST++\X64\DEBUG\DOUBLYLINKEDLIST.OBJ
^D:\PROGRAMMING\C++\2TERM\LAB10_FILEDDOUBLYLINKEDLIST++\DOUBLYLINKEDLIST.CPP
D:\PROGRAMMING\C++\2TERM\LAB10_FILEDDOUBLYLINKEDLIST++\X64\DEBUG\VC142.PDB
^D:\PROGRAMMING\C++\2TERM\LAB10_FILEDDOUBLYLINKEDLIST++\INTERFACE.CPP
D:\PROGRAMMING\C++\2TERM\LAB10_FILEDDOUBLYLINKEDLIST++\X64\DEBUG\VC142.PDB
^D:\PROGRAMMING\C++\2TERM\LAB10_FILEDDOUBLYLINKEDLIST++\MAIN.CPP|D:\PROGRAMMING\C++\2TERM\LAB10_FILEDDOUBLYLINKEDLIST++\PC.CPP
D:\PROGRAMMING\C++\2TERM\LAB10_FILEDDOUBLYLINKEDLIST++\X64\DEBUG\VC142.PDB
D:\PROGRAMMING\C++\2TERM\LAB10_FILEDDOUBLYLINKEDLIST++\X64\DEBUG\VC142.IDB
D:\PROGRAMMING\C++\2TERM\LAB10_FILEDDOUBLYLINKEDLIST++\X64\DEBUG\MAIN.OBJ
D:\PROGRAMMING\C++\2TERM\LAB10_FILEDDOUBLYLINKEDLIST++\X64\DEBUG\PC.OBJ
^D:\PROGRAMMING\C++\2TERM\LAB10_FILEDDOUBLYLINKEDLIST++\MAIN.CPP|D:\PROGRAMMING\C++\2TERM\LAB10_FILEDDOUBLYLINKEDLIST++\PC.CPP|D:\PROGRAMMING\C++\2TERM\LAB10_FILEDDOUBLYLINKEDLIST++\TEXTFILECLASS.CPP
D:\PROGRAMMING\C++\2TERM\LAB10_FILEDDOUBLYLINKEDLIST++\X64\DEBUG\VC142.PDB
D:\PROGRAMMING\C++\2TERM\LAB10_FILEDDOUBLYLINKEDLIST++\X64\DEBUG\VC142.IDB
D:\PROGRAMMING\C++\2TERM\LAB10_FILEDDOUBLYLINKEDLIST++\X64\DEBUG\MAIN.OBJ
D:\PROGRAMMING\C++\2TERM\LAB10_FILEDDOUBLYLINKEDLIST++\X64\DEBUG\TEXTFILECLASS.OBJ
D:\PROGRAMMING\C++\2TERM\LAB10_FILEDDOUBLYLINKEDLIST++\X64\DEBUG\PC.OBJ
^D:\PROGRAMMING\C++\2TERM\LAB10_FILEDDOUBLYLINKEDLIST++\TEXTFILECLASS.CPP
D:\PROGRAMMING\C++\2TERM\LAB10_FILEDDOUBLYLINKEDLIST++\X64\DEBUG\VC142.PDB
^D:\PROGRAMMING\C++\2TERM\LAB10_FILEDDOUBLYLINKEDLIST++\LAPTOP.CPP|D:\PROGRAMMING\C++\2TERM\LAB10_FILEDDOUBLYLINKEDLIST++\MAIN.CPP|D:\PROGRAMMING\C++\2TERM\LAB10_FILEDDOUBLYLINKEDLIST++\MONOBLOCK.CPP|D:\PROGRAMMING\C++\2TERM\LAB10_FILEDDOUBLYLINKEDLIST++\PC.CPP|D:\PROGRAMMING\C++\2TERM\LAB10_FILEDDOUBLYLINKEDLIST++\PORTABLEMACHINE.CPP|D:\PROGRAMMING\C++\2TERM\LAB10_FILEDDOUBLYLINKEDLIST++\STATIONARYMACHINE.CPP|D:\PROGRAMMING\C++\2TERM\LAB10_FILEDDOUBLYLINKEDLIST++\TABLET.CPP
D:\PROGRAMMING\C++\2TERM\LAB10_FILEDDOUBLYLINKEDLIST++\X64\DEBUG\VC142.PDB
D:\PROGRAMMING\C++\2TERM\LAB10_FILEDDOUBLYLINKEDLIST++\X64\DEBUG\VC142.IDB
D:\PROGRAMMING\C++\2TERM\LAB10_FILEDDOUBLYLINKEDLIST++\X64\DEBUG\MAIN.OBJ
D:\PROGRAMMING\C++\2TERM\LAB10_FILEDDOUBLYLINKEDLIST++\X64\DEBUG\TABLET.OBJ
D:\PROGRAMMING\C++\2TERM\LAB10_FILEDDOUBLYLINKEDLIST++\X64\DEBUG\STATIONARYMACHINE.OBJ
D:\PROGRAMMING\C++\2TERM\LAB10_FILEDDOUBLYLINKEDLIST++\X64\DEBUG\PORTABLEMACHINE.OBJ
D:\PROGRAMMING\C++\2TERM\LAB10_FILEDDOUBLYLINKEDLIST++\X64\DEBUG\PC.OBJ
D:\PROGRAMMING\C++\2TERM\LAB10_FILEDDOUBLYLINKEDLIST++\X64\DEBUG\MONOBLOCK.OBJ
D:\PROGRAMMING\C++\2TERM\LAB10_FILEDDOUBLYLINKEDLIST++\X64\DEBUG\LAPTOP.OBJ
^D:\PROGRAMMING\C++\2TERM\LAB10_FILEDDOUBLYLINKEDLIST++\LAPTOP.CPP
D:\PROGRAMMING\C++\2TERM\LAB10_FILEDDOUBLYLINKEDLIST++\X64\DEBUG\VC142.PDB
^D:\PROGRAMMING\C++\2TERM\LAB10_FILEDDOUBLYLINKEDLIST++\MONOBLOCK.CPP
D:\PROGRAMMING\C++\2TERM\LAB10_FILEDDOUBLYLINKEDLIST++\X64\DEBUG\VC142.PDB
^D:\PROGRAMMING\C++\2TERM\LAB10_FILEDDOUBLYLINKEDLIST++\PC.CPP
D:\PROGRAMMING\C++\2TERM\LAB10_FILEDDOUBLYLINKEDLIST++\X64\DEBUG\VC142.PDB
^D:\PROGRAMMING\C++\2TERM\LAB10_FILEDDOUBLYLINKEDLIST++\PORTABLEMACHINE.CPP
D:\PROGRAMMING\C++\2TERM\LAB10_FILEDDOUBLYLINKEDLIST++\X64\DEBUG\VC142.PDB
^D:\PROGRAMMING\C++\2TERM\LAB10_FILEDDOUBLYLINKEDLIST++\STATIONARYMACHINE.CPP
D:\PROGRAMMING\C++\2TERM\LAB10_FILEDDOUBLYLINKEDLIST++\X64\DEBUG\VC142.PDB
^D:\PROGRAMMING\C++\2TERM\LAB10_FILEDDOUBLYLINKEDLIST++\TABLET.CPP
D:\PROGRAMMING\C++\2TERM\LAB10_FILEDDOUBLYLINKEDLIST++\X64\DEBUG\VC142.PDB
^D:\PROGRAMMING\C++\2TERM\LAB10_FILEDDOUBLYLINKEDLIST++\MAIN.CPP
D:\PROGRAMMING\C++\2TERM\LAB10_FILEDDOUBLYLINKEDLIST++\X64\DEBUG\VC142.PDB
^D:\PROGRAMMING\C++\2TERM\LAB11_STLCONTAINERS\ALGORITHM.CPP|D:\PROGRAMMING\C++\2TERM\LAB11_STLCONTAINERS\ARGUMENTOUTOFRANGEEXCEPTION.CPP|D:\PROGRAMMING\C++\2TERM\LAB11_STLCONTAINERS\BINARYFILECLASS.CPP|D:\PROGRAMMING\C++\2TERM\LAB11_STLCONTAINERS\COMPARATORS.CPP|D:\PROGRAMMING\C++\2TERM\LAB11_STLCONTAINERS\COMPUTINGMACHINE.CPP|D:\PROGRAMMING\C++\2TERM\LAB11_STLCONTAINERS\CONSTLISTITERATOR.CPP|D:\PROGRAMMING\C++\2TERM\LAB11_STLCONTAINERS\DOUBLYLINKEDLIST.CPP|D:\PROGRAMMING\C++\2TERM\LAB11_STLCONTAINERS\EXCEPTION.CPP|D:\PROGRAMMING\C++\2TERM\LAB11_STLCONTAINERS\FILECLASS.CPP|D:\PROGRAMMING\C++\2TERM\LAB11_STLCONTAINERS\INPUTSIZEEXCEPTION.CPP|D:\PROGRAMMING\C++\2TERM\LAB11_STLCONTAINERS\INTERFACE.CPP|D:\PROGRAMMING\C++\2TERM\LAB11_STLCONTAINERS\INVALIDLANGUAGEEXCEPTION.CPP|D:\PROGRAMMING\C++\2TERM\LAB11_STLCONTAINERS\LAPTOP.CPP|D:\PROGRAMMING\C++\2TERM\LAB11_STLCONTAINERS\LISTITERATOR.CPP|D:\PROGRAMMING\C++\2TERM\LAB11_STLCONTAINERS\MAIN.CPP|D:\PROGRAMMING\C++\2TERM\LAB11_STLCONTAINERS\MONOBLOCK.CPP|D:\PROGRAMMING\C++\2TERM\LAB11_STLCONTAINERS\PC.CPP|D:\PROGRAMMING\C++\2TERM\LAB11_STLCONTAINERS\PORTABLEMACHINE.CPP|D:\PROGRAMMING\C++\2TERM\LAB11_STLCONTAINERS\STATIONARYMACHINE.CPP|D:\PROGRAMMING\C++\2TERM\LAB11_STLCONTAINERS\TABLET.CPP|D:\PROGRAMMING\C++\2TERM\LAB11_STLCONTAINERS\TEXTFILECLASS.CPP
D:\PROGRAMMING\C++\2TERM\LAB11_STLCONTAINERS\X64\DEBUG\VC142.PDB
D:\PROGRAMMING\C++\2TERM\LAB11_STLCONTAINERS\X64\DEBUG\VC142.IDB
D:\PROGRAMMING\C++\2TERM\LAB11_STLCONTAINERS\X64\DEBUG\TABLET.OBJ
D:\PROGRAMMING\C++\2TERM\LAB11_STLCONTAINERS\X64\DEBUG\STATIONARYMACHINE.OBJ
D:\PROGRAMMING\C++\2TERM\LAB11_STLCONTAINERS\X64\DEBUG\PORTABLEMACHINE.OBJ
D:\PROGRAMMING\C++\2TERM\LAB11_STLCONTAINERS\X64\DEBUG\PC.OBJ
D:\PROGRAMMING\C++\2TERM\LAB11_STLCONTAINERS\X64\DEBUG\MONOBLOCK.OBJ
D:\PROGRAMMING\C++\2TERM\LAB11_STLCONTAINERS\X64\DEBUG\MAIN.OBJ
D:\PROGRAMMING\C++\2TERM\LAB11_STLCONTAINERS\X64\DEBUG\LISTITERATOR.OBJ
D:\PROGRAMMING\C++\2TERM\LAB11_STLCONTAINERS\X64\DEBUG\LAPTOP.OBJ
D:\PROGRAMMING\C++\2TERM\LAB11_STLCONTAINERS\X64\DEBUG\INVALIDLANGUAGEEXCEPTION.OBJ
D:\PROGRAMMING\C++\2TERM\LAB11_STLCONTAINERS\X64\DEBUG\INTERFACE.OBJ
D:\PROGRAMMING\C++\2TERM\LAB11_STLCONTAINERS\X64\DEBUG\INPUTSIZEEXCEPTION.OBJ
D:\PROGRAMMING\C++\2TERM\LAB11_STLCONTAINERS\X64\DEBUG\FILECLASS.OBJ
D:\PROGRAMMING\C++\2TERM\LAB11_STLCONTAINERS\X64\DEBUG\EXCEPTION.OBJ
D:\PROGRAMMING\C++\2TERM\LAB11_STLCONTAINERS\X64\DEBUG\DOUBLYLINKEDLIST.OBJ
D:\PROGRAMMING\C++\2TERM\LAB11_STLCONTAINERS\X64\DEBUG\CONSTLISTITERATOR.OBJ
D:\PROGRAMMING\C++\2TERM\LAB11_STLCONTAINERS\X64\DEBUG\COMPUTINGMACHINE.OBJ
D:\PROGRAMMING\C++\2TERM\LAB11_STLCONTAINERS\X64\DEBUG\COMPARATORS.OBJ
D:\PROGRAMMING\C++\2TERM\LAB11_STLCONTAINERS\X64\DEBUG\BINARYFILECLASS.OBJ
D:\PROGRAMMING\C++\2TERM\LAB11_STLCONTAINERS\X64\DEBUG\ARGUMENTOUTOFRANGEEXCEPTION.OBJ
D:\PROGRAMMING\C++\2TERM\LAB11_STLCONTAINERS\X64\DEBUG\ALGORITHM.OBJ
D:\PROGRAMMING\C++\2TERM\LAB11_STLCONTAINERS\X64\DEBUG\TEXTFILECLASS.OBJ
^D:\PROGRAMMING\C++\2TERM\LAB11_STLCONTAINERS\ARGUMENTOUTOFRANGEEXCEPTION.CPP
D:\PROGRAMMING\C++\2TERM\LAB11_STLCONTAINERS\X64\DEBUG\VC142.PDB
^D:\PROGRAMMING\C++\2TERM\LAB11_STLCONTAINERS\COMPUTINGMACHINE.CPP
D:\PROGRAMMING\C++\2TERM\LAB11_STLCONTAINERS\X64\DEBUG\VC142.PDB
^D:\PROGRAMMING\C++\2TERM\LAB11_STLCONTAINERS\CONSTLISTITERATOR.CPP
D:\PROGRAMMING\C++\2TERM\LAB11_STLCONTAINERS\X64\DEBUG\VC142.PDB
^D:\PROGRAMMING\C++\2TERM\LAB11_STLCONTAINERS\EXCEPTION.CPP
D:\PROGRAMMING\C++\2TERM\LAB11_STLCONTAINERS\X64\DEBUG\VC142.PDB
^D:\PROGRAMMING\C++\2TERM\LAB11_STLCONTAINERS\FILECLASS.CPP
D:\PROGRAMMING\C++\2TERM\LAB11_STLCONTAINERS\X64\DEBUG\VC142.PDB
^D:\PROGRAMMING\C++\2TERM\LAB11_STLCONTAINERS\INPUTSIZEEXCEPTION.CPP
D:\PROGRAMMING\C++\2TERM\LAB11_STLCONTAINERS\X64\DEBUG\VC142.PDB
^D:\PROGRAMMING\C++\2TERM\LAB11_STLCONTAINERS\INVALIDLANGUAGEEXCEPTION.CPP
D:\PROGRAMMING\C++\2TERM\LAB11_STLCONTAINERS\X64\DEBUG\VC142.PDB
^D:\PROGRAMMING\C++\2TERM\LAB11_STLCONTAINERS\LAPTOP.CPP
D:\PROGRAMMING\C++\2TERM\LAB11_STLCONTAINERS\X64\DEBUG\VC142.PDB
^D:\PROGRAMMING\C++\2TERM\LAB11_STLCONTAINERS\LISTITERATOR.CPP
D:\PROGRAMMING\C++\2TERM\LAB11_STLCONTAINERS\X64\DEBUG\VC142.PDB
^D:\PROGRAMMING\C++\2TERM\LAB11_STLCONTAINERS\MONOBLOCK.CPP
D:\PROGRAMMING\C++\2TERM\LAB11_STLCONTAINERS\X64\DEBUG\VC142.PDB
^D:\PROGRAMMING\C++\2TERM\LAB11_STLCONTAINERS\PC.CPP
D:\PROGRAMMING\C++\2TERM\LAB11_STLCONTAINERS\X64\DEBUG\VC142.PDB
^D:\PROGRAMMING\C++\2TERM\LAB11_STLCONTAINERS\PORTABLEMACHINE.CPP
D:\PROGRAMMING\C++\2TERM\LAB11_STLCONTAINERS\X64\DEBUG\VC142.PDB
^D:\PROGRAMMING\C++\2TERM\LAB11_STLCONTAINERS\STATIONARYMACHINE.CPP
D:\PROGRAMMING\C++\2TERM\LAB11_STLCONTAINERS\X64\DEBUG\VC142.PDB
^D:\PROGRAMMING\C++\2TERM\LAB11_STLCONTAINERS\TABLET.CPP
D:\PROGRAMMING\C++\2TERM\LAB11_STLCONTAINERS\X64\DEBUG\VC142.PDB
^D:\PROGRAMMING\C++\2TERM\LAB11_STLCONTAINERS\COMPARATORS.CPP|D:\PROGRAMMING\C++\2TERM\LAB11_STLCONTAINERS\INTERFACE.CPP|D:\PROGRAMMING\C++\2TERM\LAB11_STLCONTAINERS\MAIN.CPP
D:\PROGRAMMING\C++\2TERM\LAB11_STLCONTAINERS\X64\DEBUG\VC142.PDB
D:\PROGRAMMING\C++\2TERM\LAB11_STLCONTAINERS\X64\DEBUG\VC142.IDB
D:\PROGRAMMING\C++\2TERM\LAB11_STLCONTAINERS\X64\DEBUG\INTERFACE.OBJ
D:\PROGRAMMING\C++\2TERM\LAB11_STLCONTAINERS\X64\DEBUG\COMPARATORS.OBJ
^D:\PROGRAMMING\C++\2TERM\LAB11_STLCONTAINERS\COMPARATORS.CPP
D:\PROGRAMMING\C++\2TERM\LAB11_STLCONTAINERS\X64\DEBUG\COMPARATORS.OBJ
^D:\PROGRAMMING\C++\2TERM\LAB11_STLCONTAINERS\ALGORITHM.CPP|D:\PROGRAMMING\C++\2TERM\LAB11_STLCONTAINERS\BINARYFILECLASS.CPP|D:\PROGRAMMING\C++\2TERM\LAB11_STLCONTAINERS\DOUBLYLINKEDLIST.CPP|D:\PROGRAMMING\C++\2TERM\LAB11_STLCONTAINERS\INTERFACE.CPP|D:\PROGRAMMING\C++\2TERM\LAB11_STLCONTAINERS\MAIN.CPP|D:\PROGRAMMING\C++\2TERM\LAB11_STLCONTAINERS\TEXTFILECLASS.CPP
D:\PROGRAMMING\C++\2TERM\LAB11_STLCONTAINERS\X64\DEBUG\VC142.PDB
D:\PROGRAMMING\C++\2TERM\LAB11_STLCONTAINERS\X64\DEBUG\VC142.IDB
D:\PROGRAMMING\C++\2TERM\LAB11_STLCONTAINERS\X64\DEBUG\ALGORITHM.OBJ
^D:\PROGRAMMING\C++\2TERM\LAB11_STLCONTAINERS\BINARYFILECLASS.CPP|D:\PROGRAMMING\C++\2TERM\LAB11_STLCONTAINERS\DOUBLYLINKEDLIST.CPP|D:\PROGRAMMING\C++\2TERM\LAB11_STLCONTAINERS\INTERFACE.CPP|D:\PROGRAMMING\C++\2TERM\LAB11_STLCONTAINERS\MAIN.CPP|D:\PROGRAMMING\C++\2TERM\LAB11_STLCONTAINERS\TEXTFILECLASS.CPP
D:\PROGRAMMING\C++\2TERM\LAB11_STLCONTAINERS\X64\DEBUG\VC142.PDB
D:\PROGRAMMING\C++\2TERM\LAB11_STLCONTAINERS\X64\DEBUG\VC142.IDB
D:\PROGRAMMING\C++\2TERM\LAB11_STLCONTAINERS\X64\DEBUG\TEXTFILECLASS.OBJ
D:\PROGRAMMING\C++\2TERM\LAB11_STLCONTAINERS\X64\DEBUG\BINARYFILECLASS.OBJ
^D:\PROGRAMMING\C++\2TERM\LAB11_STLCONTAINERS\BINARYFILECLASS.CPP
D:\PROGRAMMING\C++\2TERM\LAB11_STLCONTAINERS\X64\DEBUG\BINARYFILECLASS.OBJ
^D:\PROGRAMMING\C++\2TERM\LAB11_STLCONTAINERS\DOUBLYLINKEDLIST.CPP|D:\PROGRAMMING\C++\2TERM\LAB11_STLCONTAINERS\INTERFACE.CPP|D:\PROGRAMMING\C++\2TERM\LAB11_STLCONTAINERS\MAIN.CPP|D:\PROGRAMMING\C++\2TERM\LAB11_STLCONTAINERS\TEXTFILECLASS.CPP
D:\PROGRAMMING\C++\2TERM\LAB11_STLCONTAINERS\X64\DEBUG\VC142.PDB
D:\PROGRAMMING\C++\2TERM\LAB11_STLCONTAINERS\X64\DEBUG\VC142.IDB
D:\PROGRAMMING\C++\2TERM\LAB11_STLCONTAINERS\X64\DEBUG\TEXTFILECLASS.OBJ
D:\PROGRAMMING\C++\2TERM\LAB11_STLCONTAINERS\X64\DEBUG\MAIN.OBJ
D:\PROGRAMMING\C++\2TERM\LAB11_STLCONTAINERS\X64\DEBUG\INTERFACE.OBJ
D:\PROGRAMMING\C++\2TERM\LAB11_STLCONTAINERS\X64\DEBUG\DOUBLYLINKEDLIST.OBJ
^D:\PROGRAMMING\C++\2TERM\LAB11_STLCONTAINERS\TEXTFILECLASS.CPP
D:\PROGRAMMING\C++\2TERM\LAB11_STLCONTAINERS\X64\DEBUG\VC142.PDB
^D:\PROGRAMMING\C++\2TERM\LAB11_STLCONTAINERS\ALGORITHM.CPP|D:\PROGRAMMING\C++\2TERM\LAB11_STLCONTAINERS\DOUBLYLINKEDLIST.CPP|D:\PROGRAMMING\C++\2TERM\LAB11_STLCONTAINERS\INTERFACE.CPP|D:\PROGRAMMING\C++\2TERM\LAB11_STLCONTAINERS\MAIN.CPP
D:\PROGRAMMING\C++\2TERM\LAB11_STLCONTAINERS\X64\DEBUG\VC142.PDB
D:\PROGRAMMING\C++\2TERM\LAB11_STLCONTAINERS\X64\DEBUG\VC142.IDB
D:\PROGRAMMING\C++\2TERM\LAB11_STLCONTAINERS\X64\DEBUG\MAIN.OBJ
D:\PROGRAMMING\C++\2TERM\LAB11_STLCONTAINERS\X64\DEBUG\INTERFACE.OBJ
D:\PROGRAMMING\C++\2TERM\LAB11_STLCONTAINERS\X64\DEBUG\DOUBLYLINKEDLIST.OBJ
D:\PROGRAMMING\C++\2TERM\LAB11_STLCONTAINERS\X64\DEBUG\ALGORITHM.OBJ
^D:\PROGRAMMING\C++\2TERM\LAB11_STLCONTAINERS\DOUBLYLINKEDLIST.CPP
D:\PROGRAMMING\C++\2TERM\LAB11_STLCONTAINERS\X64\DEBUG\VC142.PDB
^D:\PROGRAMMING\C++\2TERM\LAB11_STLCONTAINERS\INTERFACE.CPP|D:\PROGRAMMING\C++\2TERM\LAB11_STLCONTAINERS\MAIN.CPP
D:\PROGRAMMING\C++\2TERM\LAB11_STLCONTAINERS\X64\DEBUG\VC142.PDB
D:\PROGRAMMING\C++\2TERM\LAB11_STLCONTAINERS\X64\DEBUG\VC142.IDB
D:\PROGRAMMING\C++\2TERM\LAB11_STLCONTAINERS\X64\DEBUG\INTERFACE.OBJ
^D:\PROGRAMMING\C++\2TERM\LAB11_STLCONTAINERS\ALGORITHM.CPP|D:\PROGRAMMING\C++\2TERM\LAB11_STLCONTAINERS\INTERFACE.CPP|D:\PROGRAMMING\C++\2TERM\LAB11_STLCONTAINERS\MAIN.CPP
D:\PROGRAMMING\C++\2TERM\LAB11_STLCONTAINERS\X64\DEBUG\VC142.PDB
D:\PROGRAMMING\C++\2TERM\LAB11_STLCONTAINERS\X64\DEBUG\VC142.IDB
D:\PROGRAMMING\C++\2TERM\LAB11_STLCONTAINERS\X64\DEBUG\INTERFACE.OBJ
D:\PROGRAMMING\C++\2TERM\LAB11_STLCONTAINERS\X64\DEBUG\ALGORITHM.OBJ
^D:\PROGRAMMING\C++\2TERM\LAB11_STLCONTAINERS\INTERFACE.CPP
D:\PROGRAMMING\C++\2TERM\LAB11_STLCONTAINERS\X64\DEBUG\INTERFACE.OBJ
^D:\PROGRAMMING\C++\2TERM\LAB11_STLCONTAINERS\ALGORITHM.CPP|D:\PROGRAMMING\C++\2TERM\LAB11_STLCONTAINERS\MAIN.CPP
D:\PROGRAMMING\C++\2TERM\LAB11_STLCONTAINERS\X64\DEBUG\VC142.PDB
D:\PROGRAMMING\C++\2TERM\LAB11_STLCONTAINERS\X64\DEBUG\VC142.IDB
D:\PROGRAMMING\C++\2TERM\LAB11_STLCONTAINERS\X64\DEBUG\MAIN.OBJ
D:\PROGRAMMING\C++\2TERM\LAB11_STLCONTAINERS\X64\DEBUG\ALGORITHM.OBJ
^D:\PROGRAMMING\C++\2TERM\LAB11_STLCONTAINERS\ALGORITHM.CPP
D:\PROGRAMMING\C++\2TERM\LAB11_STLCONTAINERS\X64\DEBUG\VC142.PDB
^D:\PROGRAMMING\C++\2TERM\LAB11_STLCONTAINERS\MAIN.CPP
D:\PROGRAMMING\C++\2TERM\LAB11_STLCONTAINERS\X64\DEBUG\VC142.PDB
